emily
…
[1] "1988-08-07 18:00:00 UTC" "1988-08-08 00:00:00 UTC"
[3] "1988-08-08 06:00:00 UTC" "1988-08-08 12:00:00 UTC"
[5] "1988-08-08 18:00:00 UTC" "1988-08-09 00:00:00 UTC"

# Merge the datasets by 'storm_name' and 'NAME', and add 'WMO_WIND(kts)' from H1
Hurricane_Merged <- Historical_Hurricane_2 %>%
  left_join(
    Historical_Hurricane_1 %>%
      select(NAME, ISO_TIME, `WMO_WIND(kts)`),  # Select 'NAME', 'ISO_TIME', and 'WMO_WIND(kts)' columns from H1
    by = c("storm_name" = "NAME", "date" = "ISO_TIME")  # Merge on 'storm_name' and 'date'
  )

Hurricane_Merged

# A tibble: 141,888 × 8
   storm_name date                longitude latitude quadrant wind_speed
   <chr>      <dttm>                  <dbl>    <dbl> <chr>         <dbl>
 1 ALBERTO    1988-08-07 18:00:00     -77.5     32   ne               34
 2 ALBERTO    1988-08-08 00:00:00     -76.2     32.8 ne               34
 3 ALBERTO    1988-08-08 06:00:00     -75.2     34   ne               34
 4 ALBERTO    1988-08-08 12:00:00     -74.6     35.2 ne               34
 5 ALBERTO    1988-08-08 18:00:00     -73.5     37   ne               34
 6 ALBERTO    1988-08-09 00:00:00     -72.4     38.7 ne               34
 7 ALBERTO    1988-08-09 06:00:00     -70.8     40   ne               34
 8 ALBERTO    1988-08-09 12:00:00     -69       41.5 ne               34
 9 ALBERTO    1988-08-09 18:00:00     -67.5     43   ne               34
10 ALBERTO    1988-08-10 00:00:00     -65.5     45   ne               34
# ℹ 141,878 more rows
# ℹ 2 more variables: wind_radius <dbl>, `WMO_WIND(kts)` <chr>
…
# Sort by date after processing the data
storm_area_data_consecutive <- storm_area_data_consecutive %>%
  arrange(date, storm_name) 

# Print the storm area data with consecutive row calculation
print(storm_area_data_consecutive)

# A tibble: 10,585 × 5
   storm_name date                latitude longitude storm_area_sq_miles 
   <chr>      <dttm>                 <dbl>     <dbl> <chr>               
 1 ALBERTO    1988-08-08 00:00:00     32.8     -76.2 "    10,929,332,256"
 2 ALBERTO    1988-08-08 06:00:00     34       -75.2 "    12,499,544,347"
 3 ALBERTO    1988-08-08 12:00:00     35.2     -74.6 "     7,396,878,951"
 4 ALBERTO    1988-08-08 18:00:00     37       -73.5 "    20,049,542,623"
 5 ALBERTO    1988-08-09 00:00:00     38.7     -72.4 "    18,506,753,032"
 6 ALBERTO    1988-08-09 06:00:00     40       -70.8 "    20,115,666,300"
 7 ALBERTO    1988-08-09 12:00:00     41.5     -69   "    25,630,245,921"
 8 ALBERTO    1988-08-09 18:00:00     43       -67.5 "    20,882,170,479"
 9 ALBERTO    1988-08-10 00:00:00     45       -65.5 "    36,250,969,107"
10 ALBERTO    1988-08-10 06:00:00     47       -63   "    43,810,700,891"
# ℹ 10,575 more rows
…
# Assuming 'Hurricane_Merged' contains 'wind_speed' and 'WMO_WIND(kts)'
wind_speed_comparison <- Hurricane_Merged %>%
  filter(!is.na(wind_speed) & !is.na(`WMO_WIND(kts)`)) %>%  # Remove NA values in both columns
  # Create the new column to check if WMO_WIND(kts) is greater than wind_speed
  mutate(
    is_wmo_wind_greater = if_else(`WMO_WIND(kts)` > wind_speed, "WMO > Wind Speed", 
                                  if_else(`WMO_WIND(kts)` < wind_speed, "WMO < Wind Speed", "WMO = Wind Speed"))
  ) %>%
  # Select the relevant columns for output
  select(storm_name, wind_speed, `WMO_WIND(kts)`, date, is_wmo_wind_greater)

# Print the result
print(wind_speed_comparison)

# A tibble: 139,128 × 5
   storm_name wind_speed `WMO_WIND(kts)` date                is_wmo_wind_greater
   <chr>           <dbl> <chr>           <dttm>              <chr>              
 1 ALBERTO            34 20              1988-08-07 18:00:00 WMO < Wind Speed   
 2 ALBERTO            34 20              1988-08-08 00:00:00 WMO < Wind Speed   
 3 ALBERTO            34 20              1988-08-08 06:00:00 WMO < Wind Speed   
 4 ALBERTO            34 25              1988-08-08 12:00:00 WMO < Wind Speed   
 5 ALBERTO            34 25              1988-08-08 18:00:00 WMO < Wind Speed   
 6 ALBERTO            34 25              1988-08-09 00:00:00 WMO < Wind Speed   
 7 ALBERTO            34 30              1988-08-09 06:00:00 WMO < Wind Speed   
 8 ALBERTO            34 35              1988-08-09 12:00:00 WMO > Wind Speed   
 9 ALBERTO            34 35              1988-08-09 18:00:00 WMO > Wind Speed   
10 ALBERTO            34 35              1988-08-10 00:00:00 WMO > Wind Speed   
# ℹ 139,118 more rows
…
